('C:\\Users\\LF-25\\Google Drive\\Automação do Dip '
 'coating\\build\\DipCoatingControler\\out00-PKG.pkg',
 {'BINARY': 1,
  'DATA': 1,
  'EXECUTABLE': 1,
  'EXTENSION': 1,
  'PYMODULE': 1,
  'PYSOURCE': 1,
  'PYZ': 0},
 [('out00-PYZ.pyz',
   'C:\\Users\\LF-25\\Google Drive\\Automação do Dip '
   'coating\\build\\DipCoatingControler\\out00-PYZ.pyz',
   'PYZ'),
  ('struct', 'C:\\Python34\\lib\\struct.pyo', 'PYMODULE'),
  ('pyimod01_os_path',
   'C:\\Python34\\lib\\site-packages\\PyInstaller\\loader\\pyimod01_os_path.pyc',
   'PYMODULE'),
  ('pyimod02_archive',
   'C:\\Python34\\lib\\site-packages\\PyInstaller\\loader\\pyimod02_archive.pyc',
   'PYMODULE'),
  ('pyimod03_importers',
   'C:\\Python34\\lib\\site-packages\\PyInstaller\\loader\\pyimod03_importers.pyc',
   'PYMODULE'),
  ('pyiboot01_bootstrap',
   'C:\\Python34\\lib\\site-packages\\PyInstaller\\loader\\pyiboot01_bootstrap.py',
   'PYSOURCE'),
  ('pyi_rth_qt4plugins',
   'C:\\Python34\\lib\\site-packages\\PyInstaller\\loader\\rthooks\\pyi_rth_qt4plugins.py',
   'PYSOURCE'),
  ('main',
   'C:\\Users\\LF-25\\Google Drive\\Automação do Dip coating\\main.py',
   'PYSOURCE'),
  ('python34.dll', 'C:\\windows\\system32\\python34.dll', 'BINARY'),
  ('MSVCR100.dll', 'C:\\windows\\system32\\msvcr100.dll', 'BINARY'),
  ('qt4_plugins\\codecs\\qkrcodecs4.dll',
   'C:\\Python34\\Lib\\site-packages\\PySide\\plugins\\codecs\\qkrcodecs4.dll',
   'BINARY'),
  ('qt4_plugins\\imageformats\\qtga4.dll',
   'C:\\Python34\\Lib\\site-packages\\PySide\\plugins\\imageformats\\qtga4.dll',
   'BINARY'),
  ('qt4_plugins\\codecs\\qcncodecs4.dll',
   'C:\\Python34\\Lib\\site-packages\\PySide\\plugins\\codecs\\qcncodecs4.dll',
   'BINARY'),
  ('qt4_plugins\\accessible\\qtaccessiblecompatwidgets4.dll',
   'C:\\Python34\\Lib\\site-packages\\PySide\\plugins\\accessible\\qtaccessiblecompatwidgets4.dll',
   'BINARY'),
  ('qt4_plugins\\imageformats\\qmng4.dll',
   'C:\\Python34\\Lib\\site-packages\\PySide\\plugins\\imageformats\\qmng4.dll',
   'BINARY'),
  ('qt4_plugins\\imageformats\\qtiff4.dll',
   'C:\\Python34\\Lib\\site-packages\\PySide\\plugins\\imageformats\\qtiff4.dll',
   'BINARY'),
  ('qt4_plugins\\imageformats\\qico4.dll',
   'C:\\Python34\\Lib\\site-packages\\PySide\\plugins\\imageformats\\qico4.dll',
   'BINARY'),
  ('qt4_plugins\\accessible\\qtaccessiblewidgets4.dll',
   'C:\\Python34\\Lib\\site-packages\\PySide\\plugins\\accessible\\qtaccessiblewidgets4.dll',
   'BINARY'),
  ('qt4_plugins\\imageformats\\qsvg4.dll',
   'C:\\Python34\\Lib\\site-packages\\PySide\\plugins\\imageformats\\qsvg4.dll',
   'BINARY'),
  ('qt4_plugins\\codecs\\qtwcodecs4.dll',
   'C:\\Python34\\Lib\\site-packages\\PySide\\plugins\\codecs\\qtwcodecs4.dll',
   'BINARY'),
  ('qt4_plugins\\graphicssystems\\qtracegraphicssystem4.dll',
   'C:\\Python34\\Lib\\site-packages\\PySide\\plugins\\graphicssystems\\qtracegraphicssystem4.dll',
   'BINARY'),
  ('qt4_plugins\\codecs\\qjpcodecs4.dll',
   'C:\\Python34\\Lib\\site-packages\\PySide\\plugins\\codecs\\qjpcodecs4.dll',
   'BINARY'),
  ('qt4_plugins\\imageformats\\qgif4.dll',
   'C:\\Python34\\Lib\\site-packages\\PySide\\plugins\\imageformats\\qgif4.dll',
   'BINARY'),
  ('qt4_plugins\\imageformats\\qjpeg4.dll',
   'C:\\Python34\\Lib\\site-packages\\PySide\\plugins\\imageformats\\qjpeg4.dll',
   'BINARY'),
  ('qt4_plugins\\graphicssystems\\qglgraphicssystem4.dll',
   'C:\\Python34\\Lib\\site-packages\\PySide\\plugins\\graphicssystems\\qglgraphicssystem4.dll',
   'BINARY'),
  ('qt4_plugins\\iconengines\\qsvgicon4.dll',
   'C:\\Python34\\Lib\\site-packages\\PySide\\plugins\\iconengines\\qsvgicon4.dll',
   'BINARY'),
  ('_ssl', 'C:\\Python34\\DLLs\\_ssl.pyd', 'EXTENSION'),
  ('unicodedata', 'C:\\Python34\\DLLs\\unicodedata.pyd', 'EXTENSION'),
  ('win32api',
   'C:\\Python34\\lib\\site-packages\\win32\\win32api.pyd',
   'EXTENSION'),
  ('pyexpat', 'C:\\Python34\\DLLs\\pyexpat.pyd', 'EXTENSION'),
  ('_hashlib', 'C:\\Python34\\DLLs\\_hashlib.pyd', 'EXTENSION'),
  ('select', 'C:\\Python34\\DLLs\\select.pyd', 'EXTENSION'),
  ('_bz2', 'C:\\Python34\\DLLs\\_bz2.pyd', 'EXTENSION'),
  ('_lzma', 'C:\\Python34\\DLLs\\_lzma.pyd', 'EXTENSION'),
  ('_socket', 'C:\\Python34\\DLLs\\_socket.pyd', 'EXTENSION'),
  ('_ctypes', 'C:\\Python34\\DLLs\\_ctypes.pyd', 'EXTENSION'),
  ('PySide.QtNetwork',
   'C:\\Python34\\lib\\site-packages\\PySide\\QtNetwork.pyd',
   'EXTENSION'),
  ('PySide.QtGui',
   'C:\\Python34\\lib\\site-packages\\PySide\\QtGui.pyd',
   'EXTENSION'),
  ('PySide.QtCore',
   'C:\\Python34\\lib\\site-packages\\PySide\\QtCore.pyd',
   'EXTENSION'),
  ('QtCore4.dll',
   'C:\\Python34\\lib\\site-packages\\PySide\\qtcore4.dll',
   'BINARY'),
  ('QtGui4.dll',
   'C:\\Python34\\lib\\site-packages\\PySide\\qtgui4.dll',
   'BINARY'),
  ('Qt3Support4.dll',
   'C:\\Python34\\lib\\site-packages\\PySide\\qt3support4.dll',
   'BINARY'),
  ('QtSvg4.dll',
   'C:\\Python34\\lib\\site-packages\\PySide\\qtsvg4.dll',
   'BINARY'),
  ('QtXml4.dll',
   'C:\\Python34\\lib\\site-packages\\PySide\\qtxml4.dll',
   'BINARY'),
  ('QtOpenGL4.dll',
   'C:\\Python34\\lib\\site-packages\\PySide\\qtopengl4.dll',
   'BINARY'),
  ('pywintypes34.dll', 'C:\\windows\\system32\\pywintypes34.dll', 'BINARY'),
  ('QtNetwork4.dll',
   'C:\\Python34\\lib\\site-packages\\PySide\\QtNetwork4.dll',
   'BINARY'),
  ('shiboken-python3.4.dll',
   'C:\\Python34\\lib\\site-packages\\PySide\\shiboken-python3.4.dll',
   'BINARY'),
  ('pyside-python3.4.dll',
   'C:\\Python34\\lib\\site-packages\\PySide\\pyside-python3.4.dll',
   'BINARY'),
  ('MSVCP100.dll', 'C:\\windows\\system32\\msvcp100.dll', 'BINARY'),
  ('QtSql4.dll',
   'C:\\Python34\\lib\\site-packages\\PySide\\QtSql4.dll',
   'BINARY'),
  ('base_library.zip',
   'C:\\Users\\LF-25\\Google Drive\\Automação do Dip '
   'coating\\build\\DipCoatingControler\\base_library.zip',
   'DATA'),
  ('Include\\pyconfig.h', 'C:\\Python34\\Include\\pyconfig.h', 'DATA'),
  ('DipCoatingControler.exe.manifest',
   'C:\\Users\\LF-25\\Google Drive\\Automação do Dip '
   'coating\\build\\DipCoatingControler\\DipCoatingControler.exe.manifest',
   'BINARY'),
  ('pyi-windows-manifest-filename DipCoatingControler.exe.manifest',
   '',
   'OPTION')],
 False,
 False,
 False)
